vel = []
for s in shots[3:]:
    if s.backgroundshotnumber is None:
        continue
    if s.shotnumber== 3573594079:
        continue
    s.BPM7.defaultwindow=[3.2e-6, 3.42e-6]
    s.BPM7.get_data()
    #s.BPM7.plot(ax=axes)
    tbpm7 = s.BPM7.t[np.argmax(s.BPM7.x)]
    ttarget = s.scintillatormesh.t[np.argmax(s.scintillatormesh.x)]
    dt = ttarget-tbpm7
    dx = 9.88822 - 8.27 - (1.75-1.5/2)*2.54/100
    v = dx/dt
    E = 0.5*938*4 *(v/3e8)**2
    vel.append(E)
    print(s.scintillatormesh.timing)
    print(dx,dt, E,dt, tbpm7, ttarget)
    #axes.plot([tbpm7],  [s.BPM7.x.max()], "s")
    
axes.plot(vel)    